[
  {
  "name":"第1个表(41个数据)",
  "total": 191,
  "failuresNumberCollectDtos": [
    {
        "failureQuantity": 5,
        "failureCode": "ERC24",
        "failureName": "电压越限"
    },
    {
        "failureQuantity": 5,
        "failureCode": "ERC25",
        "failureName": "电流越限"
    },
    {
        "failureQuantity": 5,
        "failureCode": "ERC26",
        "failureName": "视在功率越限"
    },
    {
        "failureQuantity": 5,
        "failureCode": "ERC27",
        "failureName": "电能表示度下降"
    },
    {
        "failureQuantity": 5,
        "failureCode": "ERC28",
        "failureName": "电能量超差"
    },
    {
        "failureQuantity": 5,
        "failureCode": "ERC29",
        "failureName": "电能表飞走"
    },
    {
        "failureQuantity": 5,
        "failureCode": "ERC30",
        "failureName": "电能表停走"
    },
    {
        "failureQuantity": 5,
        "failureCode": "ERC31",
        "failureName": "终端485秒表失败"
    },
    {
        "failureQuantity": 5,
        "failureCode": "ERC32",
        "failureName": "终端与主站通信流量超门限"
    },
    {
        "failureQuantity": 5,
        "failureCode": "ERC33",
        "failureName": "电能表运行状态字变位"
    },
    {
        "failureQuantity": 5,
        "failureCode": "ERC34",
        "failureName": "CT异常"
    },
    {
        "failureQuantity": 5,
        "failureCode": "ERC35",
        "failureName": "发现未知电表（指终端的电能表参数中未配置该电表）"
    },
    {
        "failureQuantity": 5,
        "failureCode": "ERC36",
        "failureName": "控制输出回路开关接入状态量变位记录"
    },
    {
        "failureQuantity": 5,
        "failureCode": "ERC37",
        "failureName": "电能表开表盖事件记录"
    },
    {
        "failureQuantity": 5,
        "failureCode": "ERC38",
        "failureName": "电能表开端钮盒事件记录"
    },
    {
        "failureQuantity": 5,
        "failureCode": "ERC39",
        "failureName": "补抄失败事件记录"
    },
    {
        "failureQuantity": 5,
        "failureCode": "ERC40",
        "failureName": "从节点主动上报事件记录"
    },
    {
        "failureQuantity": 14,
        "failureCode": "ERC41",
        "failureName": "对时事件记录"
    },
    {
        "failureQuantity": 92,
        "failureCode": "",
        "failureName": "其他"
    }
    ]
  },
  {
    "name":"第2个表(25个数据)",
    "total": 191,
    "failuresNumberCollectDtos": [
      {
        "failureQuantity": 5,
        "failureCode": "ERC40",
        "failureName": "从节点主动上报事件记录"
      },
      {
        "failureQuantity": 14,
        "failureCode": "ERC41",
        "failureName": "对时事件记录"
      },
      {
        "failureQuantity": 4,
        "failureCode": "ERC1",
        "failureName": "数据初始化和版本变更"
      },
      {
        "failureQuantity": 4,
        "failureCode": "ERC2",
        "failureName": "参数丢失"
      },
      {
        "failureQuantity": 4,
        "failureCode": "ERC3",
        "failureName": "参数变更"
      },
      {
        "failureQuantity": 4,
        "failureCode": "ERC4",
        "failureName": "状态量变位"
      },
      {
        "failureQuantity": 4,
        "failureCode": "ERC5",
        "failureName": "遥控跳闸"
      },
      {
        "failureQuantity": 4,
        "failureCode": "ERC6",
        "failureName": "功控跳闸"
      },
      {
        "failureQuantity": 4,
        "failureCode": "ERC7",
        "failureName": "电控跳闸"
      },
      {
        "failureQuantity": 4,
        "failureCode": "ERC8",
        "failureName": "电能表参数变更"
      },
      {
        "failureQuantity": 4,
        "failureCode": "ERC9",
        "failureName": "电流回路异常"
      },
      {
        "failureQuantity": 4,
        "failureCode": "ERC10",
        "failureName": "电压回路异常"
      },
      {
        "failureQuantity": 4,
        "failureCode": "ERC11",
        "failureName": "相序异常"
      },
      {
        "failureQuantity": 4,
        "failureCode": "ERC12",
        "failureName": "电能表时间超差"
      },
      {
        "failureQuantity": 4,
        "failureCode": "ERC13",
        "failureName": "电表故障信息"
      },
      {
        "failureQuantity": 4,
        "failureCode": "ERC14",
        "failureName": "终端停/上电"
      },
      {
        "failureQuantity": 4,
        "failureCode": "ERC15",
        "failureName": "谐波越限告警"
      },
      {
        "failureQuantity": 4,
        "failureCode": "ERC16",
        "failureName": "直流模拟量超限"
      },
      {
        "failureQuantity": 4,
        "failureCode": "ERC17",
        "failureName": "电流/电压不平衡越限"
      },
      {
        "failureQuantity": 4,
        "failureCode": "ERC18",
        "failureName": "电容器投切自锁"
      },
      {
        "failureQuantity": 4,
        "failureCode": "ERC19",
        "failureName": "购电参数设置"
      },
      {
        "failureQuantity": 4,
        "failureCode": "ERC20",
        "failureName": "消息认证错误"
      },
      {
        "failureQuantity": 4,
        "failureCode": "ERC21",
        "failureName": "终端故障"
      },
      {
        "failureQuantity": 4,
        "failureCode": "ERC22",
        "failureName": "有功总电能量差动越限"
      },
      {
        "failureQuantity": 4,
        "failureCode": "ERC23",
        "failureName": "电控告警事件"
      }
    ]},
    {
      "name":"第3个表(14个数据)",
      "total": 191,
      "failuresNumberCollectDtos": [
        {
          "failureQuantity": 5,
          "failureCode": "ERC24",
          "failureName": "电压越限"
        },
        {
          "failureQuantity": 5,
          "failureCode": "ERC25",
          "failureName": "电流越限"
        },
        {
          "failureQuantity": 5,
          "failureCode": "ERC26",
          "failureName": "视在功率越限"
        },
        {
          "failureQuantity": 5,
          "failureCode": "ERC27",
          "failureName": "电能表示度下降"
        },
        {
          "failureQuantity": 5,
          "failureCode": "ERC28",
          "failureName": "电能量超差"
        },
        {
          "failureQuantity": 5,
          "failureCode": "ERC29",
          "failureName": "电能表飞走"
        },
        {
          "failureQuantity": 5,
          "failureCode": "ERC30",
          "failureName": "电能表停走"
        },
        {
          "failureQuantity": 5,
          "failureCode": "ERC31",
          "failureName": "终端485秒表失败"
        },
        {
          "failureQuantity": 5,
          "failureCode": "ERC32",
          "failureName": "终端与主站通信流量超门限"
        },
        {
          "failureQuantity": 5,
          "failureCode": "ERC33",
          "failureName": "电能表运行状态字变位"
        },
        {
          "failureQuantity": 5,
          "failureCode": "ERC34",
          "failureName": "CT异常"
        },
        {
          "failureQuantity": 5,
          "failureCode": "ERC35",
          "failureName": "发现未知电表（指终端的电能表参数中未配置该电表）"
        },
        {
          "failureQuantity": 5,
          "failureCode": "ERC36",
          "failureName": "控制输出回路开关接入状态量变位记录"
        },
        {
          "failureQuantity": 4,
          "failureCode": "ERC23",
          "failureName": "电控告警事件"
        }
      ]}  
]